[MY] astro Sport,#genre#
astro SuperSport UHD,http://royx.xyz:80/play/live.php?mac=00:1a:79:56:77:6c&stream=1016544&extension=ts
astro SuperSport UHD,http://tvt3.xyz:2095/play/live.php?mac=00:1A:79:00:04:02&stream=348094&extension=ts&play_token=FzoklzfqN1
astro SuperSport UHD,http://clientsportals.tv:2095/play/live.php?mac=00:1A:79:c0:0f:95&stream=348094&extension=ts&play_token=kgKJ5bkM20
astro SuperSport HD,http://royx.xyz:80/play/live.php?mac=00:1a:79:56:77:6c&stream=918986&extension=ts
astro SuperSport 2 HD,http://royx.xyz:80/play/live.php?mac=00:1a:79:56:77:6c&stream=918985&extension=ts
astro SuperSport 3 HD,http://royx.xyz:80/play/live.php?mac=00:1a:79:56:77:6c&stream=918984&extension=ts
astro SuperSport 4 HD,http://royx.xyz:80/play/live.php?mac=00:1a:79:56:77:6c&stream=918983&extension=ts
astro SuperSport 5 HD,http://royx.xyz:80/play/live.php?mac=00:1a:79:56:77:6c&stream=918982&extension=ts

[英國] BT Sport,#genre#
BT Sport Ultimate,http://royx.xyz:80/play/live.php?mac=00:1a:79:b1:05:9e&stream=1038792&extension=ts
BT Sport 1,http://royx.xyz:80/play/live.php?mac=00:1a:79:56:77:6c&stream=30567&extension=ts
BT Sport 2,http://royx.xyz:80/play/live.php?mac=00:1a:79:56:77:6c&stream=30566&extension=ts
BT Sport 3,http://royx.xyz:80/play/live.php?mac=00:1a:79:56:77:6c&stream=30565&extension=ts
BT Sport 4,http://royx.xyz:80/play/live.php?mac=00:1a:79:56:77:6c&stream=30564&extension=ts

[英國] SKY Sport,#genre#
Sky Sports Premier League,http://royx.xyz:80/play/live.php?mac=00:1a:79:56:77:6c&stream=30493&extension=ts
Sky Sports Premier League,http://tvpanel.one:80/live/anpoe6@aol.com/nhwljZFOz4/586761.ts
Sky Sports Premier League,http://tvpanel.one:80/anpoe6@aol.com/nhwljZFOz4/586761
Sky Sports Premier League,http://tvpanel.one:80/anpoe6@aol.com/nhwljZFOz4/586762
Sky Sports Football,http://royx.xyz:80/play/live.php?mac=00:1a:79:56:77:6c&stream=30498&extension=ts
Sky Sports Main Event,http://royx.xyz:80/play/live.php?mac=00:1a:79:56:77:6c&stream=30496&extension=ts
Sky Sports Main Event,http://tvpanel.one:80/live/anpoe6@aol.com/nhwljZFOz4/586759.ts
Sky Sports Main Event,http://tvpanel.one:80/anpoe6@aol.com/nhwljZFOz4/586759
Sky Sports Main Event,http://tvpanel.one:80/anpoe6@aol.com/nhwljZFOz4/586760
Sky Sports Mix,http://royx.xyz:80/play/live.php?mac=00:1a:79:56:77:6c&stream=30495&extension=ts
Sky Sports Action,http://royx.xyz:80/play/live.php?mac=00:1a:79:56:77:6c&stream=929003&extension=ts
Sky Sports Arena,http://royx.xyz:80/play/live.php?mac=00:1a:79:56:77:6c&stream=30500&extension=ts

[香港] Now Sport,#genre#
Now Sports 4K,http://royx.xyz:80/play/live.php?mac=00:1a:79:56:77:6c&stream=1032489&extension=ts
Now Sports Premier League 1,http://royx.xyz:80/play/live.php?mac=00:1a:79:56:77:6c&stream=1110622&extension=ts
Now Sports 1,http://royx.xyz:80/play/live.php?mac=00:1a:79:56:77:6c&stream=1110615&extension=ts
Now Sports 2,http://royx.xyz:80/play/live.php?mac=00:1a:79:56:77:6c&stream=1110616&extension=ts
Now Sports 3,http://royx.xyz:80/play/live.php?mac=00:1a:79:56:77:6c&stream=1110617&extension=ts
Now Sports 4,http://royx.xyz:80/play/live.php?mac=00:1a:79:56:77:6c&stream=1110618&extension=ts
Now Sports 5,http://royx.xyz:80/play/live.php?mac=00:1a:79:56:77:6c&stream=1110619&extension=ts
Now Sports 6,http://royx.xyz:80/play/live.php?mac=00:1a:79:56:77:6c&stream=1110620&extension=ts
Now Sports 7,http://royx.xyz:80/play/live.php?mac=00:1a:79:56:77:6c&stream=1110621&extension=ts

[SG] StarHub Sport,#genre#
Hub Sports 1,http://royx.xyz:80/play/live.php?mac=00:1a:79:56:77:6c&stream=1110667&extension=ts
Hub Sports 2,http://royx.xyz:80/play/live.php?mac=00:1a:79:56:77:6c&stream=1110666&extension=ts
Hub Sports 4,http://royx.xyz:80/play/live.php?mac=00:1a:79:56:77:6c&stream=1110665&extension=ts

[SG] StarHub,#genre#
Hub Premier 1,http://royx.xyz:80/play/live.php?mac=00:1a:79:56:77:6c&stream=1032529&extension=ts
Hub Premier 2,http://royx.xyz:80/play/live.php?mac=00:1a:79:56:77:6c&stream=1032528&extension=ts
Hub Premier 3,http://royx.xyz:80/play/live.php?mac=00:1a:79:56:77:6c&stream=1032527&extension=ts
Hub Premier 4,http://royx.xyz:80/play/live.php?mac=00:1a:79:56:77:6c&stream=1032526&extension=ts
Hub Premier 5,http://royx.xyz:80/play/live.php?mac=00:1a:79:56:77:6c&stream=1032525&extension=ts
Hub Premier 6,http://royx.xyz:80/play/live.php?mac=00:1a:79:56:77:6c&stream=1032524&extension=ts
Hub Premier 7,http://royx.xyz:80/play/live.php?mac=00:1a:79:56:77:6c&stream=1032523&extension=ts
Hub Premier 8,http://royx.xyz:80/play/live.php?mac=00:1a:79:56:77:6c&stream=1032522&extension=ts
Hub Premier 9,http://royx.xyz:80/play/live.php?mac=00:1a:79:56:77:6c&stream=1032521&extension=ts
Hub Premier 10,http://royx.xyz:80/play/live.php?mac=00:1a:79:56:77:6c&stream=1032520&extension=ts
Hub Premier 11,http://royx.xyz:80/play/live.php?mac=00:1a:79:56:77:6c&stream=1032519&extension=ts

[英國] ELEVEN SPORTS,#genre#
ELEVEN SPORTS 1 4K,http://royx.xyz:80/play/live.php?mac=00:1a:79:56:77:6c&stream=905665&extension=ts
ELEVEN SPORTS 1,http://royx.xyz:80/play/live.php?mac=00:1a:79:56:77:6c&stream=880457&extension=ts
ELEVEN SPORTS 1,http://tvpanel.one:80/live/anpoe6@aol.com/nhwljZFOz4/579505.ts
ELEVEN SPORTS 2,http://royx.xyz:80/play/live.php?mac=00:1a:79:56:77:6c&stream=880456&extension=ts
ELEVEN SPORTS 2,http://tvpanel.one:80/live/anpoe6@aol.com/nhwljZFOz4/579506.ts
ELEVEN SPORTS 3,http://royx.xyz:80/play/live.php?mac=00:1a:79:56:77:6c&stream=880455&extension=ts
ELEVEN SPORTS 3,http://tvpanel.one:80/live/anpoe6@aol.com/nhwljZFOz4/579507.ts
ELEVEN SPORTS 4,http://royx.xyz:80/play/live.php?mac=00:1a:79:56:77:6c&stream=880454&extension=ts
ELEVEN SPORTS 4,http://tvpanel.one:80/live/anpoe6@aol.com/nhwljZFOz4/579508.ts
ELEVEN 1,http://185.191.124.105:25461/live/Jackweed/KfjtxuMnwP/15960.ts
ELEVEN 1,http://185.191.124.105:25461/live/Jackweed/KfjtxuMnwP/15959.ts
ELEVEN 1,http://ip.local-hd.xyz:12500/live/XICO69TROCAS_ALL/gEYzSJjPaFTX/4574.ts

[泰國] true Premier Football,#genre#
true Premier Football 1,http://tvt3.xyz:2095/play/live.php?mac=00:1A:79:00:04:02&stream=115758&extension=ts&play_token=ZleOAq2r3y
true Premier Football 2,http://tvt3.xyz:2095/play/live.php?mac=00:1A:79:00:04:02&stream=115762&extension=ts&play_token=f15SJHghJH

[法國] CANAL+ SPORT,#genre#
CANAL+ SPORT 1,http://royx.xyz:80/play/live.php?mac=00:1a:79:56:77:6c&stream=880461&extension=ts
CANAL+ SPORT 2,http://royx.xyz:80/play/live.php?mac=00:1a:79:56:77:6c&stream=880460&extension=ts
CANAL+ SPORT 3,http://royx.xyz:80/play/live.php?mac=00:1a:79:56:77:6c&stream=880459&extension=ts
CANAL+ SPORT 4,http://royx.xyz:80/play/live.php?mac=00:1a:79:56:77:6c&stream=880458&extension=ts

ESPN,#genre#
ESPN,http://royx.xyz:80/play/live.php?mac=00:1a:79:56:77:6c&stream=45579&extension=ts
ESPN 2,http://royx.xyz:80/play/live.php?mac=00:1a:79:56:77:6c&stream=45580&extension=ts

FOX Sport,#genre#
FOX SPORTS 1,http://royx.xyz:80/play/live.php?mac=00:1a:79:56:77:6c&stream=45571&extension=ts
FOX SPORTS 2,http://royx.xyz:80/play/live.php?mac=00:1a:79:56:77:6c&stream=45570&extension=ts
FOX SOCCER PLUS,http://royx.xyz:80/play/live.php?mac=00:1a:79:56:77:6c&stream=45572&extension=ts

